…
    ##  [1] "moefeliu"        "yfortiss"        "sociovirology"  
    ##  [4] "Renetta_Tull"    "BeccaCalisi"     "CienciaPR"      
    ##  [7] "teraholtzwagner" "MinorityPostdoc" "TTLFilms"       
    ## [10] "priscila_marie"  "komcleod"        "Sefini"         
    ## [13] "JonnyAguirre12"  "ADiaz_PhD"       "alexcr_1"       
    ## [16] "xitlalli23"

    retweets_total <- estados %>% 
      filter(is_retweet == "TRUE" | is_quote == "TRUE") %>%
      select(screen_name, retweet_screen_name, retweet_count, text)   
    retweets_total

    ## # A tibble: 119 x 4
    ##    screen_name   retweet_screen_n… retweet_count text                      
    ##    <chr>         <chr>                     <int> <chr>                     
    ##  1 SK_voltage    Sefini                        4 "\"SACNAS: Nuestra Confer…
    ##  2 chelsea_newb… Sefini                        4 "\"SACNAS: Nuestra Confer…
    ##  3 sofiamacgiron Sefini                        4 "\"SACNAS: Nuestra Confer…
    ##  4 CienciaPR     Sefini                        4 "\"SACNAS: Nuestra Confer…
    ##  5 CienciaPR     yfortiss                      2 #2019SACNAS Thinking abou…
    ##  6 CienciaPR     Sefini                        4 Proud of Jaylissa Torres …
    ##  7 CienciaPR     BeccaCalisi                  10 "Standing room only in #2…
    ##  8 CienciaPR     Sefini                        3 Talking about the importa…
    ##  9 CienciaPR     moefeliu                     19 If you are a PhD student …
    ## 10 Sefini        CienciaPR                     8 Leadership doesn’t have t…
    ## # … with 109 more rows

    retweets_sinpersonasenSACNAS <- estados %>% 
      filter(is_retweet == "TRUE" | is_quote == "TRUE") %>%  
      filter(!screen_name %in% personasenSACNAS) %>%  
      select(screen_name, retweet_screen_name, retweet_count, text) 
    retweets_sinpersonasenSACNAS

    ## # A tibble: 93 x 4
    ##    screen_name   retweet_screen_n… retweet_count text                      
    ##    <chr>         <chr>                     <int> <chr>                     
    ##  1 SK_voltage    Sefini                        4 "\"SACNAS: Nuestra Confer…
    ##  2 chelsea_newb… Sefini                        4 "\"SACNAS: Nuestra Confer…
    ##  3 sofiamacgiron Sefini                        4 "\"SACNAS: Nuestra Confer…
    ##  4 uprcayey      CienciaPR                     2 Hey #2019SACNAS! Today at…
    ##  5 vdiazochoa    sociovirology                 3 Parting thoughts for #201…
    ##  6 vdiazochoa    sociovirology                 6 Inspired by Lē'ahi: We wi…
    ##  7 PubHealthCit… Renetta_Tull                  4 "@sociovirology @sacnas @…
    ##  8 DrLHamilton   Renetta_Tull                  4 "@sociovirology @sacnas @…
    ##  9 ctitusbrown   sociovirology                 3 Parting thoughts for #201…
    ## 10 raynamharris  sociovirology                 3 Parting thoughts for #201…
    ## # … with 83 more rows
…
